-- Merging decision tree log ---
manifest
ADDED from /home/shobo/Videos/news_app/app/src/main/AndroidManifest.xml:2:1-44:12
	package
		ADDED from /home/shobo/Videos/news_app/app/src/main/AndroidManifest.xml:3:5-31
		INJECTED from /home/shobo/Videos/news_app/app/src/main/AndroidManifest.xml
		INJECTED from /home/shobo/Videos/news_app/app/src/main/AndroidManifest.xml
	android:versionName
		INJECTED from /home/shobo/Videos/news_app/app/src/main/AndroidManifest.xml
		INJECTED from /home/shobo/Videos/news_app/app/src/main/AndroidManifest.xml
	xmlns:android
		ADDED from /home/shobo/Videos/news_app/app/src/main/AndroidManifest.xml:2:11-69
	android:versionCode
		INJECTED from /home/shobo/Videos/news_app/app/src/main/AndroidManifest.xml
		INJECTED from /home/shobo/Videos/news_app/app/src/main/AndroidManifest.xml
uses-permission#android.permission.INTERNET
ADDED from /home/shobo/Videos/news_app/app/src/main/AndroidManifest.xml:5:5-66
MERGED from [com.google.android.gms:play-services-ads-lite:11.0.1] /home/shobo/.android/build-cache/5ee5cf263593fdff0ff6ebcb2776081ff2c453c3/output/AndroidManifest.xml:19:5-66
MERGED from [com.google.android.gms:play-services-analytics:11.0.1] /home/shobo/.android/build-cache/1f0a17018c075e219bb3060ac9245febc5c7e346/output/AndroidManifest.xml:20:5-66
MERGED from [com.google.android.gms:play-services-appinvite:11.0.1] /home/shobo/.android/build-cache/4400bc4c9f5aab0bbfc3ce0500cc2bc66351b10c/output/AndroidManifest.xml:18:5-66
MERGED from [com.google.firebase:firebase-crash:11.0.1] /home/shobo/.android/build-cache/71dce36165f76d9939c5697b0cbcfb07669db73a/output/AndroidManifest.xml:18:5-66
MERGED from [com.google.android.gms:play-services-gcm:11.0.1] /home/shobo/.android/build-cache/b2d6a66bb0e9295380db795ac1ec7384d76b68fb/output/AndroidManifest.xml:21:5-66
MERGED from [com.google.android.gms:play-services-iid:11.0.1] /home/shobo/.android/build-cache/4a4fb704cbf9b8277f921cb1b68f5080ffbcd948/output/AndroidManifest.xml:21:5-66
MERGED from [com.google.android.gms:play-services-tagmanager-api:11.0.1] /home/shobo/.android/build-cache/a534bee0232b0c53d22aceb8fd6b2bef87753d24/output/AndroidManifest.xml:20:5-66
MERGED from [com.google.android.gms:play-services-analytics-impl:11.0.1] /home/shobo/.android/build-cache/94725ba8c8dbc1474f36d416f6432f38c230e564/output/AndroidManifest.xml:20:5-66
MERGED from [com.google.android.gms:play-services-maps:11.0.1] /home/shobo/.android/build-cache/234141296cdb5611894bb50d0261ab0ead69c6ee/output/AndroidManifest.xml:20:5-66
MERGED from [com.google.firebase:firebase-analytics:11.0.1] /home/shobo/.android/build-cache/a4397502cfd32d8f1e837b037e15485a22e420ef/output/AndroidManifest.xml:20:5-66
MERGED from [com.google.firebase:firebase-analytics-impl:11.0.1] /home/shobo/.android/build-cache/9d68c6ffa089e6eae5b0fc2c311b8bfecdd106e4/output/AndroidManifest.xml:20:5-66
MERGED from [com.google.firebase:firebase-iid:11.0.1] /home/shobo/.android/build-cache/259caae394ddd8a90148aba2ae82df6c8aba204e/output/AndroidManifest.xml:20:5-66
	android:name
		ADDED from /home/shobo/Videos/news_app/app/src/main/AndroidManifest.xml:5:22-64
uses-permission#android.permission.ACCESS_NETWORK_STATE
ADDED from /home/shobo/Videos/news_app/app/src/main/AndroidManifest.xml:6:5-78
MERGED from [com.google.android.gms:play-services-ads-lite:11.0.1] /home/shobo/.android/build-cache/5ee5cf263593fdff0ff6ebcb2776081ff2c453c3/output/AndroidManifest.xml:20:5-78
MERGED from [com.google.android.gms:play-services-analytics:11.0.1] /home/shobo/.android/build-cache/1f0a17018c075e219bb3060ac9245febc5c7e346/output/AndroidManifest.xml:21:5-78
MERGED from [com.google.android.gms:play-services-nearby:11.0.1] /home/shobo/.android/build-cache/152d7088dd6a35ab89fa0f067650c848e5fba6c3/output/AndroidManifest.xml:4:5-78
MERGED from [com.google.android.gms:play-services-tagmanager-api:11.0.1] /home/shobo/.android/build-cache/a534bee0232b0c53d22aceb8fd6b2bef87753d24/output/AndroidManifest.xml:21:5-78
MERGED from [com.google.android.gms:play-services-analytics-impl:11.0.1] /home/shobo/.android/build-cache/94725ba8c8dbc1474f36d416f6432f38c230e564/output/AndroidManifest.xml:21:5-78
MERGED from [com.google.android.gms:play-services-maps:11.0.1] /home/shobo/.android/build-cache/234141296cdb5611894bb50d0261ab0ead69c6ee/output/AndroidManifest.xml:19:5-78
MERGED from [com.google.firebase:firebase-analytics:11.0.1] /home/shobo/.android/build-cache/a4397502cfd32d8f1e837b037e15485a22e420ef/output/AndroidManifest.xml:21:5-78
MERGED from [com.google.firebase:firebase-analytics-impl:11.0.1] /home/shobo/.android/build-cache/9d68c6ffa089e6eae5b0fc2c311b8bfecdd106e4/output/AndroidManifest.xml:21:5-78
MERGED from [com.google.firebase:firebase-iid:11.0.1] /home/shobo/.android/build-cache/259caae394ddd8a90148aba2ae82df6c8aba204e/output/AndroidManifest.xml:19:5-78
	android:name
		ADDED from /home/shobo/Videos/news_app/app/src/main/AndroidManifest.xml:6:22-76
application
ADDED from /home/shobo/Videos/news_app/app/src/main/AndroidManifest.xml:8:5-42:19
MERGED from [com.android.support:cardview-v7:25.3.1] /home/shobo/.android/build-cache/11da75a048888a8e354b0d77988a43a3f63583aa/output/AndroidManifest.xml:26:5-20
MERGED from [com.android.support:design:25.3.1] /home/shobo/.android/build-cache/aa128e192a29972c98f8b1e846c046cdecbc4fe1/output/AndroidManifest.xml:29:5-20
MERGED from [com.android.support:transition:25.3.1] /home/shobo/.android/build-cache/9f3998ab1252d0a6d23be110431c469c6764a695/output/AndroidManifest.xml:26:5-20
MERGED from [com.balysv:material-ripple:1.0.2] /home/shobo/.android/build-cache/46153022cb247ddf1b84c85e35ca416f937b31c7/output/AndroidManifest.xml:12:5-20
MERGED from [com.google.android.gms:play-services:11.0.1] /home/shobo/.android/build-cache/29b1f6c08e3be2b30dbf482c732617d8c2b53d84/output/AndroidManifest.xml:5:5-20
MERGED from [com.google.android.gms:play-services-ads-lite:11.0.1] /home/shobo/.android/build-cache/5ee5cf263593fdff0ff6ebcb2776081ff2c453c3/output/AndroidManifest.xml:23:5-26:19
MERGED from [com.google.android.gms:play-services-analytics:11.0.1] /home/shobo/.android/build-cache/1f0a17018c075e219bb3060ac9245febc5c7e346/output/AndroidManifest.xml:26:5-19
MERGED from [com.google.android.gms:play-services-appinvite:11.0.1] /home/shobo/.android/build-cache/4400bc4c9f5aab0bbfc3ce0500cc2bc66351b10c/output/AndroidManifest.xml:19:5-26:19
MERGED from [com.google.android.gms:play-services-auth:11.0.1] /home/shobo/.android/build-cache/6a0d21418d76e58213ea3dada96caa0b6ea8169c/output/AndroidManifest.xml:19:5-25:19
MERGED from [com.google.android.gms:play-services-cast-framework:11.0.1] /home/shobo/.android/build-cache/44b3d5569ab7c06fef85f7fd0a5f33eab0468228/output/AndroidManifest.xml:4:5-8:19
MERGED from [com.google.android.gms:play-services-cast:11.0.1] /home/shobo/.android/build-cache/e56f0bcedbf2c18cdba7e60d3ed654cb2521acc1/output/AndroidManifest.xml:18:5-19
MERGED from [com.android.support:mediarouter-v7:25.2.0] /home/shobo/.android/build-cache/3f599e6529bde4abd2a510dab75aa7acfbf74a80/output/AndroidManifest.xml:22:5-20
MERGED from [com.android.support:appcompat-v7:25.3.1] /home/shobo/.android/build-cache/def63475b8931aa6de05cf143f3dc94c10c99c77/output/AndroidManifest.xml:29:5-20
MERGED from [com.android.support:animated-vector-drawable:25.3.1] /home/shobo/.android/build-cache/f4c64378217f3926653e8366d32e2cb4fa7721ff/output/AndroidManifest.xml:26:5-20
MERGED from [com.android.support:support-vector-drawable:25.3.1] /home/shobo/.android/build-cache/c93ce688db5a3d18702235a89076d9e07cf89dd1/output/AndroidManifest.xml:26:5-20
MERGED from [com.android.support:palette-v7:25.2.0] /home/shobo/.android/build-cache/e2a6c6dbb6bc16fcd9a069639e5246cc466f4fd4/output/AndroidManifest.xml:22:5-23:19
MERGED from [com.google.android.gms:play-services-clearcut:11.0.1] /home/shobo/.android/build-cache/9bed58961a6db3e8765fa4f261182ee4fa2b6576/output/AndroidManifest.xml:18:5-19
MERGED from [com.google.firebase:firebase-config:11.0.1] /home/shobo/.android/build-cache/55da26fdbe24ed7550efab3693b0738012a9247a/output/AndroidManifest.xml:18:5-19
MERGED from [com.google.android.gms:play-services-awareness:11.0.1] /home/shobo/.android/build-cache/7a77ef5918097b0229338fe7a7570eb305c06fae/output/AndroidManifest.xml:18:5-19
MERGED from [com.google.firebase:firebase-crash:11.0.1] /home/shobo/.android/build-cache/71dce36165f76d9939c5697b0cbcfb07669db73a/output/AndroidManifest.xml:22:5-23:19
MERGED from [com.google.firebase:firebase-auth:11.0.1] /home/shobo/.android/build-cache/ff8deeba8c804703621f16193d39c6c4ffcf7c2a/output/AndroidManifest.xml:19:5-20:19
MERGED from [com.google.firebase:firebase-dynamic-links:11.0.1] /home/shobo/.android/build-cache/efba051303e3d624e94546396ad40903d2b8094e/output/AndroidManifest.xml:5:3-17
MERGED from [com.google.firebase:firebase-messaging:11.0.1] /home/shobo/.android/build-cache/3bc6262019ca8ccde44a501d1a09fb0ac786ddd9/output/AndroidManifest.xml:19:5-29:19
MERGED from [com.google.android.gms:play-services-fitness:11.0.1] /home/shobo/.android/build-cache/bb56dee3acf30ab142e590d32fbae21ca4112247/output/AndroidManifest.xml:18:5-19
MERGED from [com.google.android.gms:play-services-games:11.0.1] /home/shobo/.android/build-cache/731f42cbfe9c602c5356208cca3ea56e9296a420/output/AndroidManifest.xml:18:5-19
MERGED from [com.google.android.gms:play-services-drive:11.0.1] /home/shobo/.android/build-cache/52f1b690eed21d1fccc7844b9fe4da09f2f06908/output/AndroidManifest.xml:18:5-19
MERGED from [com.google.android.gms:play-services-gass:11.0.1] /home/shobo/.android/build-cache/081a79f9a44666812aa6deab110b63d249070604/output/AndroidManifest.xml:4:5-19
MERGED from [com.google.android.gms:play-services-gcm:11.0.1] /home/shobo/.android/build-cache/b2d6a66bb0e9295380db795ac1ec7384d76b68fb/output/AndroidManifest.xml:23:5-19
MERGED from [com.google.firebase:firebase-appindexing:11.0.1] /home/shobo/.android/build-cache/93e58e0a1c9b64b9440a6cd4d5890dc261768f5e/output/AndroidManifest.xml:18:5-19
MERGED from [com.google.android.gms:play-services-iid:11.0.1] /home/shobo/.android/build-cache/4a4fb704cbf9b8277f921cb1b68f5080ffbcd948/output/AndroidManifest.xml:23:5-19
MERGED from [com.google.android.gms:play-services-location:11.0.1] /home/shobo/.android/build-cache/4130e8027dda8054948feb7f30f82dc264d57f19/output/AndroidManifest.xml:4:5-19
MERGED from [com.google.android.gms:play-services-nearby:11.0.1] /home/shobo/.android/build-cache/152d7088dd6a35ab89fa0f067650c848e5fba6c3/output/AndroidManifest.xml:5:5-19
MERGED from [com.google.android.gms:play-services-panorama:11.0.1] /home/shobo/.android/build-cache/170df57b66244e100781a408b874a5eba3db2492/output/AndroidManifest.xml:18:5-19
MERGED from [com.google.android.gms:play-services-places:11.0.1] /home/shobo/.android/build-cache/b993ad1fe123b8ca027a973b277047b7f8b62628/output/AndroidManifest.xml:18:5-19
MERGED from [com.google.android.gms:play-services-plus:11.0.1] /home/shobo/.android/build-cache/687d2fbb46c6dfb39a3d73232787ca62359e7ff8/output/AndroidManifest.xml:18:5-19
MERGED from [com.google.android.gms:play-services-safetynet:11.0.1] /home/shobo/.android/build-cache/8ba9bec7fc21703a36960dacd5b6aa63dde8a1d2/output/AndroidManifest.xml:18:5-19
MERGED from [com.google.android.gms:play-services-tagmanager-api:11.0.1] /home/shobo/.android/build-cache/a534bee0232b0c53d22aceb8fd6b2bef87753d24/output/AndroidManifest.xml:23:5-33:19
MERGED from [com.google.android.gms:play-services-tagmanager-v4-impl:11.0.1] /home/shobo/.android/build-cache/663b5e1285e74160547d32a9f840b1bca258aa88/output/AndroidManifest.xml:19:5-19
MERGED from [com.google.android.gms:play-services-analytics-impl:11.0.1] /home/shobo/.android/build-cache/94725ba8c8dbc1474f36d416f6432f38c230e564/output/AndroidManifest.xml:26:5-19
MERGED from [com.google.android.gms:play-services-vision:11.0.1] /home/shobo/.android/build-cache/e5e1234d45edc60aa83b7f89293b928b0b6882ef/output/AndroidManifest.xml:4:5-19
MERGED from [com.google.android.gms:play-services-vision-common:11.0.1] /home/shobo/.android/build-cache/d00f367f30fc871ea3d184da7f3d9975358c3788/output/AndroidManifest.xml:4:5-19
MERGED from [com.google.android.gms:play-services-identity:11.0.1] /home/shobo/.android/build-cache/18578b48522581d40a8e7d83ea556bf8fd3aa0bc/output/AndroidManifest.xml:18:5-19
MERGED from [com.google.android.gms:play-services-maps:11.0.1] /home/shobo/.android/build-cache/234141296cdb5611894bb50d0261ab0ead69c6ee/output/AndroidManifest.xml:24:5-19
MERGED from [com.google.android.gms:play-services-wearable:11.0.1] /home/shobo/.android/build-cache/1b1f4dc4087b267f3523f1f9f13bb4f6ccbe7685/output/AndroidManifest.xml:18:5-19
MERGED from [com.google.android.gms:play-services-base:11.0.1] /home/shobo/.android/build-cache/34be1e984cd501c7a38103119bbdc3decac4ad28/output/AndroidManifest.xml:18:5-20:19
MERGED from [com.google.firebase:firebase-core:11.0.1] /home/shobo/.android/build-cache/28593a8bde51a8b164866f3e005e68a5f91f8177/output/AndroidManifest.xml:5:5-20
MERGED from [com.google.firebase:firebase-analytics:11.0.1] /home/shobo/.android/build-cache/a4397502cfd32d8f1e837b037e15485a22e420ef/output/AndroidManifest.xml:24:5-34:19
MERGED from [com.google.firebase:firebase-analytics-impl:11.0.1] /home/shobo/.android/build-cache/9d68c6ffa089e6eae5b0fc2c311b8bfecdd106e4/output/AndroidManifest.xml:24:5-28:19
MERGED from [com.google.firebase:firebase-iid:11.0.1] /home/shobo/.android/build-cache/259caae394ddd8a90148aba2ae82df6c8aba204e/output/AndroidManifest.xml:28:5-49:19
MERGED from [com.google.firebase:firebase-common:11.0.1] /home/shobo/.android/build-cache/cd9b6d2435b70e281645d41d0325dc97400bbe3b/output/AndroidManifest.xml:4:5-7:19
MERGED from [com.google.android.gms:play-services-tasks:11.0.1] /home/shobo/.android/build-cache/4b6d1e5c8c166e6c3c78936ee1b1023ea9d56dff/output/AndroidManifest.xml:4:5-19
MERGED from [com.google.android.gms:play-services-basement:11.0.1] /home/shobo/.android/build-cache/2f9c3528a863c171e0e614732eb33859a149cfed/output/AndroidManifest.xml:19:5-21:19
MERGED from [com.android.support:support-v4:25.3.1] /home/shobo/.android/build-cache/79535bbf46be1ee8570a2601b44a84d5caa7e78a/output/AndroidManifest.xml:29:5-20
MERGED from [com.android.support:support-fragment:25.3.1] /home/shobo/.android/build-cache/ee3c42694bda2ef95aaa941091025a00af72b980/output/AndroidManifest.xml:29:5-20
MERGED from [com.android.support:support-media-compat:25.3.1] /home/shobo/.android/build-cache/38b997185152e026a361ebca82276d6a73f30e53/output/AndroidManifest.xml:29:5-20
MERGED from [com.android.support:support-core-ui:25.3.1] /home/shobo/.android/build-cache/55310e3834602eb9bfa1bda075835b1e9a259c2c/output/AndroidManifest.xml:29:5-20
MERGED from [com.android.support:support-core-utils:25.3.1] /home/shobo/.android/build-cache/935c8c0806f71963df997a7fdd750af83ecfab7e/output/AndroidManifest.xml:29:5-20
MERGED from [com.android.support:support-compat:25.3.1] /home/shobo/.android/build-cache/9c3191017befe699b420c2cf7fa4e879c9fd0177/output/AndroidManifest.xml:29:5-20
	android:label
		ADDED from /home/shobo/Videos/news_app/app/src/main/AndroidManifest.xml:12:9-41
	android:supportsRtl
		ADDED from /home/shobo/Videos/news_app/app/src/main/AndroidManifest.xml:13:9-35
	android:windowSoftInputMode
		ADDED from /home/shobo/Videos/news_app/app/src/main/AndroidManifest.xml:15:9-50
	android:allowBackup
		ADDED from /home/shobo/Videos/news_app/app/src/main/AndroidManifest.xml:10:9-35
	android:icon
		ADDED from /home/shobo/Videos/news_app/app/src/main/AndroidManifest.xml:11:9-43
	android:theme
		ADDED from /home/shobo/Videos/news_app/app/src/main/AndroidManifest.xml:14:9-40
	android:name
		ADDED from /home/shobo/Videos/news_app/app/src/main/AndroidManifest.xml:9:9-60
activity#com.app.news_api.ActivitySplash
ADDED from /home/shobo/Videos/news_app/app/src/main/AndroidManifest.xml:17:9-23:20
	android:name
		ADDED from /home/shobo/Videos/news_app/app/src/main/AndroidManifest.xml:17:19-65
intent-filter#android.intent.action.MAIN+android.intent.category.LAUNCHER
ADDED from /home/shobo/Videos/news_app/app/src/main/AndroidManifest.xml:18:13-22:29
action#android.intent.action.MAIN
ADDED from /home/shobo/Videos/news_app/app/src/main/AndroidManifest.xml:19:17-69
	android:name
		ADDED from /home/shobo/Videos/news_app/app/src/main/AndroidManifest.xml:19:25-66
category#android.intent.category.LAUNCHER
ADDED from /home/shobo/Videos/news_app/app/src/main/AndroidManifest.xml:21:17-77
	android:name
		ADDED from /home/shobo/Videos/news_app/app/src/main/AndroidManifest.xml:21:27-74
activity#com.app.news_api.ActivityChannelDetails
ADDED from /home/shobo/Videos/news_app/app/src/main/AndroidManifest.xml:25:9-76
	android:name
		ADDED from /home/shobo/Videos/news_app/app/src/main/AndroidManifest.xml:25:19-73
activity#com.app.news_api.ActivityNewsDetails
ADDED from /home/shobo/Videos/news_app/app/src/main/AndroidManifest.xml:27:9-73
	android:name
		ADDED from /home/shobo/Videos/news_app/app/src/main/AndroidManifest.xml:27:19-70
activity#com.app.news_api.ActivityRegister
ADDED from /home/shobo/Videos/news_app/app/src/main/AndroidManifest.xml:29:9-31:56
	android:windowSoftInputMode
		ADDED from /home/shobo/Videos/news_app/app/src/main/AndroidManifest.xml:31:13-54
	android:name
		ADDED from /home/shobo/Videos/news_app/app/src/main/AndroidManifest.xml:30:13-61
activity#com.app.news_api.ActivityLogin
ADDED from /home/shobo/Videos/news_app/app/src/main/AndroidManifest.xml:33:9-35:56
	android:windowSoftInputMode
		ADDED from /home/shobo/Videos/news_app/app/src/main/AndroidManifest.xml:35:13-54
	android:name
		ADDED from /home/shobo/Videos/news_app/app/src/main/AndroidManifest.xml:34:13-58
activity#com.app.news_api.ActivityMain
ADDED from /home/shobo/Videos/news_app/app/src/main/AndroidManifest.xml:37:9-39:56
	android:windowSoftInputMode
		ADDED from /home/shobo/Videos/news_app/app/src/main/AndroidManifest.xml:39:13-54
	android:name
		ADDED from /home/shobo/Videos/news_app/app/src/main/AndroidManifest.xml:38:13-57
uses-sdk
INJECTED from /home/shobo/Videos/news_app/app/src/main/AndroidManifest.xml reason: use-sdk injection requested
MERGED from [com.android.support:multidex:1.0.1] /home/shobo/.android/build-cache/df5acc55d2486ec2847bc140270740155c3acca1/output/AndroidManifest.xml:18:5-42
MERGED from [com.android.support:cardview-v7:25.3.1] /home/shobo/.android/build-cache/11da75a048888a8e354b0d77988a43a3f63583aa/output/AndroidManifest.xml:20:5-43
MERGED from [com.android.support:design:25.3.1] /home/shobo/.android/build-cache/aa128e192a29972c98f8b1e846c046cdecbc4fe1/output/AndroidManifest.xml:21:5-23:62
MERGED from [com.android.support:recyclerview-v7:25.3.1] /home/shobo/.android/build-cache/0b7dec57b22c7b71e42a6a632b421b057cbdff88/output/AndroidManifest.xml:20:5-43
MERGED from [com.android.support:transition:25.3.1] /home/shobo/.android/build-cache/9f3998ab1252d0a6d23be110431c469c6764a695/output/AndroidManifest.xml:20:5-44
MERGED from [com.balysv:material-ripple:1.0.2] /home/shobo/.android/build-cache/46153022cb247ddf1b84c85e35ca416f937b31c7/output/AndroidManifest.xml:8:5-10:41
MERGED from [com.google.android.gms:play-services:11.0.1] /home/shobo/.android/build-cache/29b1f6c08e3be2b30dbf482c732617d8c2b53d84/output/AndroidManifest.xml:4:5-43
MERGED from [com.google.android.gms:play-services-ads:11.0.1] /home/shobo/.android/build-cache/e925aee32e6d08fcdf43f249092fe5f0b83b8247/output/AndroidManifest.xml:17:5-43
MERGED from [com.google.android.gms:play-services-ads-lite:11.0.1] /home/shobo/.android/build-cache/5ee5cf263593fdff0ff6ebcb2776081ff2c453c3/output/AndroidManifest.xml:22:5-43
MERGED from [com.google.android.gms:play-services-analytics:11.0.1] /home/shobo/.android/build-cache/1f0a17018c075e219bb3060ac9245febc5c7e346/output/AndroidManifest.xml:17:5-43
MERGED from [com.google.android.gms:play-services-appinvite:11.0.1] /home/shobo/.android/build-cache/4400bc4c9f5aab0bbfc3ce0500cc2bc66351b10c/output/AndroidManifest.xml:17:5-43
MERGED from [com.google.android.gms:play-services-auth-api-phone:11.0.1] /home/shobo/.android/build-cache/7bfbcb221ca3b0808e4e784b84d0f2d1fc6345e2/output/AndroidManifest.xml:3:3-41
MERGED from [com.google.android.gms:play-services-auth:11.0.1] /home/shobo/.android/build-cache/6a0d21418d76e58213ea3dada96caa0b6ea8169c/output/AndroidManifest.xml:17:5-43
MERGED from [com.google.android.gms:play-services-auth-base:11.0.1] /home/shobo/.android/build-cache/7db146923ca7c33e878c55033504246dd844b614/output/AndroidManifest.xml:4:5-43
MERGED from [com.google.android.gms:play-services-cast-framework:11.0.1] /home/shobo/.android/build-cache/44b3d5569ab7c06fef85f7fd0a5f33eab0468228/output/AndroidManifest.xml:3:5-43
MERGED from [com.google.android.gms:play-services-cast:11.0.1] /home/shobo/.android/build-cache/e56f0bcedbf2c18cdba7e60d3ed654cb2521acc1/output/AndroidManifest.xml:17:5-43
MERGED from [com.android.support:mediarouter-v7:25.2.0] /home/shobo/.android/build-cache/3f599e6529bde4abd2a510dab75aa7acfbf74a80/output/AndroidManifest.xml:20:5-43
MERGED from [com.android.support:appcompat-v7:25.3.1] /home/shobo/.android/build-cache/def63475b8931aa6de05cf143f3dc94c10c99c77/output/AndroidManifest.xml:21:5-23:78
MERGED from [com.android.support:animated-vector-drawable:25.3.1] /home/shobo/.android/build-cache/f4c64378217f3926653e8366d32e2cb4fa7721ff/output/AndroidManifest.xml:20:5-44
MERGED from [com.android.support:support-vector-drawable:25.3.1] /home/shobo/.android/build-cache/c93ce688db5a3d18702235a89076d9e07cf89dd1/output/AndroidManifest.xml:20:5-43
MERGED from [com.android.support:palette-v7:25.2.0] /home/shobo/.android/build-cache/e2a6c6dbb6bc16fcd9a069639e5246cc466f4fd4/output/AndroidManifest.xml:20:5-43
MERGED from [com.google.android.gms:play-services-clearcut:11.0.1] /home/shobo/.android/build-cache/9bed58961a6db3e8765fa4f261182ee4fa2b6576/output/AndroidManifest.xml:17:5-43
MERGED from [com.google.firebase:firebase-config:11.0.1] /home/shobo/.android/build-cache/55da26fdbe24ed7550efab3693b0738012a9247a/output/AndroidManifest.xml:17:5-43
MERGED from [com.google.android.gms:play-services-awareness:11.0.1] /home/shobo/.android/build-cache/7a77ef5918097b0229338fe7a7570eb305c06fae/output/AndroidManifest.xml:17:5-43
MERGED from [com.google.firebase:firebase-crash:11.0.1] /home/shobo/.android/build-cache/71dce36165f76d9939c5697b0cbcfb07669db73a/output/AndroidManifest.xml:20:5-43
MERGED from [com.google.firebase:firebase-auth:11.0.1] /home/shobo/.android/build-cache/ff8deeba8c804703621f16193d39c6c4ffcf7c2a/output/AndroidManifest.xml:17:5-43
MERGED from [com.google.firebase:firebase-database:11.0.1] /home/shobo/.android/build-cache/5599958ff9fde1ca9f9da050092da1f5c8a9b522/output/AndroidManifest.xml:3:5-43
MERGED from [com.google.firebase:firebase-database-connection:11.0.1] /home/shobo/.android/build-cache/6552a1634a835686f2651530b7256015794ab765/output/AndroidManifest.xml:3:5-43
MERGED from [com.google.firebase:firebase-dynamic-links:11.0.1] /home/shobo/.android/build-cache/efba051303e3d624e94546396ad40903d2b8094e/output/AndroidManifest.xml:3:3-41
MERGED from [com.google.firebase:firebase-messaging:11.0.1] /home/shobo/.android/build-cache/3bc6262019ca8ccde44a501d1a09fb0ac786ddd9/output/AndroidManifest.xml:17:5-43
MERGED from [com.google.firebase:firebase-storage:11.0.1] /home/shobo/.android/build-cache/a9ab53dd35105397d75cd6f8bff9a1bc388d22a2/output/AndroidManifest.xml:3:5-43
MERGED from [com.google.firebase:firebase-storage-common:11.0.1] /home/shobo/.android/build-cache/2424f6e50071494fc359e846f19d4d895958b36d/output/AndroidManifest.xml:3:5-43
MERGED from [com.google.android.gms:play-services-fitness:11.0.1] /home/shobo/.android/build-cache/bb56dee3acf30ab142e590d32fbae21ca4112247/output/AndroidManifest.xml:17:5-43
MERGED from [com.google.android.gms:play-services-games:11.0.1] /home/shobo/.android/build-cache/731f42cbfe9c602c5356208cca3ea56e9296a420/output/AndroidManifest.xml:17:5-43
MERGED from [com.google.android.gms:play-services-drive:11.0.1] /home/shobo/.android/build-cache/52f1b690eed21d1fccc7844b9fe4da09f2f06908/output/AndroidManifest.xml:17:5-43
MERGED from [com.google.android.gms:play-services-gass:11.0.1] /home/shobo/.android/build-cache/081a79f9a44666812aa6deab110b63d249070604/output/AndroidManifest.xml:3:5-43
MERGED from [com.google.android.gms:play-services-gcm:11.0.1] /home/shobo/.android/build-cache/b2d6a66bb0e9295380db795ac1ec7384d76b68fb/output/AndroidManifest.xml:17:5-43
MERGED from [com.google.firebase:firebase-appindexing:11.0.1] /home/shobo/.android/build-cache/93e58e0a1c9b64b9440a6cd4d5890dc261768f5e/output/AndroidManifest.xml:17:5-43
MERGED from [com.google.android.gms:play-services-iid:11.0.1] /home/shobo/.android/build-cache/4a4fb704cbf9b8277f921cb1b68f5080ffbcd948/output/AndroidManifest.xml:17:5-43
MERGED from [com.google.android.gms:play-services-instantapps:11.0.1] /home/shobo/.android/build-cache/23cfca75b43120583610bbdd0c8abc8fb769e21f/output/AndroidManifest.xml:3:5-43
MERGED from [com.google.android.gms:play-services-location:11.0.1] /home/shobo/.android/build-cache/4130e8027dda8054948feb7f30f82dc264d57f19/output/AndroidManifest.xml:3:5-43
MERGED from [com.google.android.gms:play-services-nearby:11.0.1] /home/shobo/.android/build-cache/152d7088dd6a35ab89fa0f067650c848e5fba6c3/output/AndroidManifest.xml:3:5-43
MERGED from [com.google.android.gms:play-services-panorama:11.0.1] /home/shobo/.android/build-cache/170df57b66244e100781a408b874a5eba3db2492/output/AndroidManifest.xml:17:5-43
MERGED from [com.google.android.gms:play-services-places:11.0.1] /home/shobo/.android/build-cache/b993ad1fe123b8ca027a973b277047b7f8b62628/output/AndroidManifest.xml:17:5-43
MERGED from [com.google.android.gms:play-services-plus:11.0.1] /home/shobo/.android/build-cache/687d2fbb46c6dfb39a3d73232787ca62359e7ff8/output/AndroidManifest.xml:17:5-43
MERGED from [com.google.android.gms:play-services-safetynet:11.0.1] /home/shobo/.android/build-cache/8ba9bec7fc21703a36960dacd5b6aa63dde8a1d2/output/AndroidManifest.xml:17:5-43
MERGED from [com.google.android.gms:play-services-tagmanager:11.0.1] /home/shobo/.android/build-cache/3126bba6aa6907fb721950fe32e61b8ab5e70d0c/output/AndroidManifest.xml:17:5-43
MERGED from [com.google.android.gms:play-services-tagmanager-api:11.0.1] /home/shobo/.android/build-cache/a534bee0232b0c53d22aceb8fd6b2bef87753d24/output/AndroidManifest.xml:17:5-43
MERGED from [com.google.android.gms:play-services-tagmanager-v4-impl:11.0.1] /home/shobo/.android/build-cache/663b5e1285e74160547d32a9f840b1bca258aa88/output/AndroidManifest.xml:17:5-43
MERGED from [com.google.android.gms:play-services-analytics-impl:11.0.1] /home/shobo/.android/build-cache/94725ba8c8dbc1474f36d416f6432f38c230e564/output/AndroidManifest.xml:17:5-43
MERGED from [com.google.android.gms:play-services-vision:11.0.1] /home/shobo/.android/build-cache/e5e1234d45edc60aa83b7f89293b928b0b6882ef/output/AndroidManifest.xml:3:5-43
MERGED from [com.google.android.gms:play-services-vision-common:11.0.1] /home/shobo/.android/build-cache/d00f367f30fc871ea3d184da7f3d9975358c3788/output/AndroidManifest.xml:3:5-43
MERGED from [com.google.android.gms:play-services-wallet:11.0.1] /home/shobo/.android/build-cache/a4c1e98ab2885b48d4fe2862812d0ea744e77708/output/AndroidManifest.xml:18:5-43
MERGED from [com.google.android.gms:play-services-identity:11.0.1] /home/shobo/.android/build-cache/18578b48522581d40a8e7d83ea556bf8fd3aa0bc/output/AndroidManifest.xml:17:5-43
MERGED from [com.google.android.gms:play-services-maps:11.0.1] /home/shobo/.android/build-cache/234141296cdb5611894bb50d0261ab0ead69c6ee/output/AndroidManifest.xml:23:5-43
MERGED from [com.google.android.gms:play-services-wearable:11.0.1] /home/shobo/.android/build-cache/1b1f4dc4087b267f3523f1f9f13bb4f6ccbe7685/output/AndroidManifest.xml:17:5-43
MERGED from [com.google.android.gms:play-services-base:11.0.1] /home/shobo/.android/build-cache/34be1e984cd501c7a38103119bbdc3decac4ad28/output/AndroidManifest.xml:17:5-43
MERGED from [com.google.firebase:firebase-core:11.0.1] /home/shobo/.android/build-cache/28593a8bde51a8b164866f3e005e68a5f91f8177/output/AndroidManifest.xml:4:5-43
MERGED from [com.google.firebase:firebase-analytics:11.0.1] /home/shobo/.android/build-cache/a4397502cfd32d8f1e837b037e15485a22e420ef/output/AndroidManifest.xml:17:5-43
MERGED from [com.google.firebase:firebase-analytics-impl:11.0.1] /home/shobo/.android/build-cache/9d68c6ffa089e6eae5b0fc2c311b8bfecdd106e4/output/AndroidManifest.xml:17:5-43
MERGED from [com.google.firebase:firebase-iid:11.0.1] /home/shobo/.android/build-cache/259caae394ddd8a90148aba2ae82df6c8aba204e/output/AndroidManifest.xml:17:5-43
MERGED from [com.google.firebase:firebase-common:11.0.1] /home/shobo/.android/build-cache/cd9b6d2435b70e281645d41d0325dc97400bbe3b/output/AndroidManifest.xml:3:5-43
MERGED from [com.google.android.gms:play-services-tasks:11.0.1] /home/shobo/.android/build-cache/4b6d1e5c8c166e6c3c78936ee1b1023ea9d56dff/output/AndroidManifest.xml:3:5-43
MERGED from [com.google.android.gms:play-services-basement:11.0.1] /home/shobo/.android/build-cache/2f9c3528a863c171e0e614732eb33859a149cfed/output/AndroidManifest.xml:17:5-43
MERGED from [com.android.support:support-v4:25.3.1] /home/shobo/.android/build-cache/79535bbf46be1ee8570a2601b44a84d5caa7e78a/output/AndroidManifest.xml:21:5-23:54
MERGED from [com.android.support:support-fragment:25.3.1] /home/shobo/.android/build-cache/ee3c42694bda2ef95aaa941091025a00af72b980/output/AndroidManifest.xml:21:5-23:60
MERGED from [com.android.support:support-media-compat:25.3.1] /home/shobo/.android/build-cache/38b997185152e026a361ebca82276d6a73f30e53/output/AndroidManifest.xml:21:5-23:63
MERGED from [com.android.support:support-core-ui:25.3.1] /home/shobo/.android/build-cache/55310e3834602eb9bfa1bda075835b1e9a259c2c/output/AndroidManifest.xml:21:5-23:58
MERGED from [com.android.support:support-core-utils:25.3.1] /home/shobo/.android/build-cache/935c8c0806f71963df997a7fdd750af83ecfab7e/output/AndroidManifest.xml:21:5-23:61
MERGED from [com.android.support:support-compat:25.3.1] /home/shobo/.android/build-cache/9c3191017befe699b420c2cf7fa4e879c9fd0177/output/AndroidManifest.xml:21:5-23:58
	tools:overrideLibrary
		ADDED from [com.android.support:design:25.3.1] /home/shobo/.android/build-cache/aa128e192a29972c98f8b1e846c046cdecbc4fe1/output/AndroidManifest.xml:23:9-59
	android:targetSdkVersion
		INJECTED from /home/shobo/Videos/news_app/app/src/main/AndroidManifest.xml
		INJECTED from /home/shobo/Videos/news_app/app/src/main/AndroidManifest.xml
	android:minSdkVersion
		INJECTED from /home/shobo/Videos/news_app/app/src/main/AndroidManifest.xml
		INJECTED from /home/shobo/Videos/news_app/app/src/main/AndroidManifest.xml
meta-data#android.support.VERSION
ADDED from [com.android.support:cardview-v7:25.3.1] /home/shobo/.android/build-cache/11da75a048888a8e354b0d77988a43a3f63583aa/output/AndroidManifest.xml:22:5-24:34
MERGED from [com.android.support:design:25.3.1] /home/shobo/.android/build-cache/aa128e192a29972c98f8b1e846c046cdecbc4fe1/output/AndroidManifest.xml:25:5-27:34
MERGED from [com.android.support:recyclerview-v7:25.3.1] /home/shobo/.android/build-cache/0b7dec57b22c7b71e42a6a632b421b057cbdff88/output/AndroidManifest.xml:22:5-24:34
MERGED from [com.android.support:transition:25.3.1] /home/shobo/.android/build-cache/9f3998ab1252d0a6d23be110431c469c6764a695/output/AndroidManifest.xml:22:5-24:34
MERGED from [com.android.support:appcompat-v7:25.3.1] /home/shobo/.android/build-cache/def63475b8931aa6de05cf143f3dc94c10c99c77/output/AndroidManifest.xml:25:5-27:34
MERGED from [com.android.support:animated-vector-drawable:25.3.1] /home/shobo/.android/build-cache/f4c64378217f3926653e8366d32e2cb4fa7721ff/output/AndroidManifest.xml:22:5-24:34
MERGED from [com.android.support:support-vector-drawable:25.3.1] /home/shobo/.android/build-cache/c93ce688db5a3d18702235a89076d9e07cf89dd1/output/AndroidManifest.xml:22:5-24:34
MERGED from [com.android.support:support-v4:25.3.1] /home/shobo/.android/build-cache/79535bbf46be1ee8570a2601b44a84d5caa7e78a/output/AndroidManifest.xml:25:5-27:34
MERGED from [com.android.support:support-fragment:25.3.1] /home/shobo/.android/build-cache/ee3c42694bda2ef95aaa941091025a00af72b980/output/AndroidManifest.xml:25:5-27:34
MERGED from [com.android.support:support-media-compat:25.3.1] /home/shobo/.android/build-cache/38b997185152e026a361ebca82276d6a73f30e53/output/AndroidManifest.xml:25:5-27:34
MERGED from [com.android.support:support-core-ui:25.3.1] /home/shobo/.android/build-cache/55310e3834602eb9bfa1bda075835b1e9a259c2c/output/AndroidManifest.xml:25:5-27:34
MERGED from [com.android.support:support-core-utils:25.3.1] /home/shobo/.android/build-cache/935c8c0806f71963df997a7fdd750af83ecfab7e/output/AndroidManifest.xml:25:5-27:34
MERGED from [com.android.support:support-compat:25.3.1] /home/shobo/.android/build-cache/9c3191017befe699b420c2cf7fa4e879c9fd0177/output/AndroidManifest.xml:25:5-27:34
	android:value
		ADDED from [com.android.support:cardview-v7:25.3.1] /home/shobo/.android/build-cache/11da75a048888a8e354b0d77988a43a3f63583aa/output/AndroidManifest.xml:24:9-31
	android:name
		ADDED from [com.android.support:cardview-v7:25.3.1] /home/shobo/.android/build-cache/11da75a048888a8e354b0d77988a43a3f63583aa/output/AndroidManifest.xml:23:9-47
activity#com.google.android.gms.ads.AdActivity
ADDED from [com.google.android.gms:play-services-ads-lite:11.0.1] /home/shobo/.android/build-cache/5ee5cf263593fdff0ff6ebcb2776081ff2c453c3/output/AndroidManifest.xml:25:9-232
	android:configChanges
		ADDED from [com.google.android.gms:play-services-ads-lite:11.0.1] /home/shobo/.android/build-cache/5ee5cf263593fdff0ff6ebcb2776081ff2c453c3/output/AndroidManifest.xml:25:72-181
	android:theme
		ADDED from [com.google.android.gms:play-services-ads-lite:11.0.1] /home/shobo/.android/build-cache/5ee5cf263593fdff0ff6ebcb2776081ff2c453c3/output/AndroidManifest.xml:25:182-230
	android:name
		ADDED from [com.google.android.gms:play-services-ads-lite:11.0.1] /home/shobo/.android/build-cache/5ee5cf263593fdff0ff6ebcb2776081ff2c453c3/output/AndroidManifest.xml:25:19-71
uses-permission#android.permission.WAKE_LOCK
ADDED from [com.google.android.gms:play-services-analytics:11.0.1] /home/shobo/.android/build-cache/1f0a17018c075e219bb3060ac9245febc5c7e346/output/AndroidManifest.xml:24:5-67
MERGED from [com.google.android.gms:play-services-analytics-impl:11.0.1] /home/shobo/.android/build-cache/94725ba8c8dbc1474f36d416f6432f38c230e564/output/AndroidManifest.xml:24:5-67
MERGED from [com.google.firebase:firebase-analytics:11.0.1] /home/shobo/.android/build-cache/a4397502cfd32d8f1e837b037e15485a22e420ef/output/AndroidManifest.xml:22:5-67
MERGED from [com.google.firebase:firebase-analytics-impl:11.0.1] /home/shobo/.android/build-cache/9d68c6ffa089e6eae5b0fc2c311b8bfecdd106e4/output/AndroidManifest.xml:22:5-67
MERGED from [com.google.firebase:firebase-iid:11.0.1] /home/shobo/.android/build-cache/259caae394ddd8a90148aba2ae82df6c8aba204e/output/AndroidManifest.xml:21:5-67
	android:name
		ADDED from [com.google.android.gms:play-services-analytics:11.0.1] /home/shobo/.android/build-cache/1f0a17018c075e219bb3060ac9245febc5c7e346/output/AndroidManifest.xml:24:22-65
activity#com.google.android.gms.appinvite.PreviewActivity
ADDED from [com.google.android.gms:play-services-appinvite:11.0.1] /home/shobo/.android/build-cache/4400bc4c9f5aab0bbfc3ce0500cc2bc66351b10c/output/AndroidManifest.xml:20:9-25:20
	android:exported
		ADDED from [com.google.android.gms:play-services-appinvite:11.0.1] /home/shobo/.android/build-cache/4400bc4c9f5aab0bbfc3ce0500cc2bc66351b10c/output/AndroidManifest.xml:20:51-74
	android:theme
		ADDED from [com.google.android.gms:play-services-appinvite:11.0.1] /home/shobo/.android/build-cache/4400bc4c9f5aab0bbfc3ce0500cc2bc66351b10c/output/AndroidManifest.xml:20:75-121
	android:name
		ADDED from [com.google.android.gms:play-services-appinvite:11.0.1] /home/shobo/.android/build-cache/4400bc4c9f5aab0bbfc3ce0500cc2bc66351b10c/output/AndroidManifest.xml:20:19-50
intent-filter#android.intent.category.DEFAULT+com.google.android.gms.appinvite.ACTION_PREVIEW
ADDED from [com.google.android.gms:play-services-appinvite:11.0.1] /home/shobo/.android/build-cache/4400bc4c9f5aab0bbfc3ce0500cc2bc66351b10c/output/AndroidManifest.xml:21:13-24:29
action#com.google.android.gms.appinvite.ACTION_PREVIEW
ADDED from [com.google.android.gms:play-services-appinvite:11.0.1] /home/shobo/.android/build-cache/4400bc4c9f5aab0bbfc3ce0500cc2bc66351b10c/output/AndroidManifest.xml:22:17-89
	android:name
		ADDED from [com.google.android.gms:play-services-appinvite:11.0.1] /home/shobo/.android/build-cache/4400bc4c9f5aab0bbfc3ce0500cc2bc66351b10c/output/AndroidManifest.xml:22:25-87
category#android.intent.category.DEFAULT
ADDED from [com.google.android.gms:play-services-appinvite:11.0.1] /home/shobo/.android/build-cache/4400bc4c9f5aab0bbfc3ce0500cc2bc66351b10c/output/AndroidManifest.xml:23:17-75
	android:name
		ADDED from [com.google.android.gms:play-services-appinvite:11.0.1] /home/shobo/.android/build-cache/4400bc4c9f5aab0bbfc3ce0500cc2bc66351b10c/output/AndroidManifest.xml:23:27-73
activity#com.google.android.gms.auth.api.signin.internal.SignInHubActivity
ADDED from [com.google.android.gms:play-services-auth:11.0.1] /home/shobo/.android/build-cache/6a0d21418d76e58213ea3dada96caa0b6ea8169c/output/AndroidManifest.xml:20:9-189
	android:excludeFromRecents
		ADDED from [com.google.android.gms:play-services-auth:11.0.1] /home/shobo/.android/build-cache/6a0d21418d76e58213ea3dada96caa0b6ea8169c/output/AndroidManifest.xml:20:129-162
	android:exported
		ADDED from [com.google.android.gms:play-services-auth:11.0.1] /home/shobo/.android/build-cache/6a0d21418d76e58213ea3dada96caa0b6ea8169c/output/AndroidManifest.xml:20:163-187
	android:theme
		ADDED from [com.google.android.gms:play-services-auth:11.0.1] /home/shobo/.android/build-cache/6a0d21418d76e58213ea3dada96caa0b6ea8169c/output/AndroidManifest.xml:20:69-128
	android:name
		ADDED from [com.google.android.gms:play-services-auth:11.0.1] /home/shobo/.android/build-cache/6a0d21418d76e58213ea3dada96caa0b6ea8169c/output/AndroidManifest.xml:20:19-68
service#com.google.android.gms.auth.api.signin.RevocationBoundService
ADDED from [com.google.android.gms:play-services-auth:11.0.1] /home/shobo/.android/build-cache/6a0d21418d76e58213ea3dada96caa0b6ea8169c/output/AndroidManifest.xml:24:9-184
	android:exported
		ADDED from [com.google.android.gms:play-services-auth:11.0.1] /home/shobo/.android/build-cache/6a0d21418d76e58213ea3dada96caa0b6ea8169c/output/AndroidManifest.xml:24:64-87
	android:permission
		ADDED from [com.google.android.gms:play-services-auth:11.0.1] /home/shobo/.android/build-cache/6a0d21418d76e58213ea3dada96caa0b6ea8169c/output/AndroidManifest.xml:24:88-182
	android:name
		ADDED from [com.google.android.gms:play-services-auth:11.0.1] /home/shobo/.android/build-cache/6a0d21418d76e58213ea3dada96caa0b6ea8169c/output/AndroidManifest.xml:24:18-63
receiver#com.google.android.gms.cast.framework.media.MediaIntentReceiver
ADDED from [com.google.android.gms:play-services-cast-framework:11.0.1] /home/shobo/.android/build-cache/44b3d5569ab7c06fef85f7fd0a5f33eab0468228/output/AndroidManifest.xml:5:9-99
	android:name
		ADDED from [com.google.android.gms:play-services-cast-framework:11.0.1] /home/shobo/.android/build-cache/44b3d5569ab7c06fef85f7fd0a5f33eab0468228/output/AndroidManifest.xml:5:19-97
service#com.google.android.gms.cast.framework.media.MediaNotificationService
ADDED from [com.google.android.gms:play-services-cast-framework:11.0.1] /home/shobo/.android/build-cache/44b3d5569ab7c06fef85f7fd0a5f33eab0468228/output/AndroidManifest.xml:6:9-103
	android:name
		ADDED from [com.google.android.gms:play-services-cast-framework:11.0.1] /home/shobo/.android/build-cache/44b3d5569ab7c06fef85f7fd0a5f33eab0468228/output/AndroidManifest.xml:6:18-101
service#com.google.android.gms.cast.framework.ReconnectionService
ADDED from [com.google.android.gms:play-services-cast-framework:11.0.1] /home/shobo/.android/build-cache/44b3d5569ab7c06fef85f7fd0a5f33eab0468228/output/AndroidManifest.xml:7:9-92
	android:name
		ADDED from [com.google.android.gms:play-services-cast-framework:11.0.1] /home/shobo/.android/build-cache/44b3d5569ab7c06fef85f7fd0a5f33eab0468228/output/AndroidManifest.xml:7:18-90
service#com.google.firebase.messaging.FirebaseMessagingService
ADDED from [com.google.firebase:firebase-messaging:11.0.1] /home/shobo/.android/build-cache/3bc6262019ca8ccde44a501d1a09fb0ac786ddd9/output/AndroidManifest.xml:23:9-27:19
	android:exported
		ADDED from [com.google.firebase:firebase-messaging:11.0.1] /home/shobo/.android/build-cache/3bc6262019ca8ccde44a501d1a09fb0ac786ddd9/output/AndroidManifest.xml:23:88-111
	android:name
		ADDED from [com.google.firebase:firebase-messaging:11.0.1] /home/shobo/.android/build-cache/3bc6262019ca8ccde44a501d1a09fb0ac786ddd9/output/AndroidManifest.xml:23:18-87
intent-filter#com.google.firebase.MESSAGING_EVENT
ADDED from [com.google.firebase:firebase-messaging:11.0.1] /home/shobo/.android/build-cache/3bc6262019ca8ccde44a501d1a09fb0ac786ddd9/output/AndroidManifest.xml:24:13-26:29
	android:priority
		ADDED from [com.google.firebase:firebase-messaging:11.0.1] /home/shobo/.android/build-cache/3bc6262019ca8ccde44a501d1a09fb0ac786ddd9/output/AndroidManifest.xml:24:28-51
action#com.google.firebase.MESSAGING_EVENT
ADDED from [com.google.firebase:firebase-messaging:11.0.1] /home/shobo/.android/build-cache/3bc6262019ca8ccde44a501d1a09fb0ac786ddd9/output/AndroidManifest.xml:25:17-77
	android:name
		ADDED from [com.google.firebase:firebase-messaging:11.0.1] /home/shobo/.android/build-cache/3bc6262019ca8ccde44a501d1a09fb0ac786ddd9/output/AndroidManifest.xml:25:25-75
uses-permission#com.google.android.c2dm.permission.RECEIVE
ADDED from [com.google.android.gms:play-services-gcm:11.0.1] /home/shobo/.android/build-cache/b2d6a66bb0e9295380db795ac1ec7384d76b68fb/output/AndroidManifest.xml:20:5-81
MERGED from [com.google.android.gms:play-services-iid:11.0.1] /home/shobo/.android/build-cache/4a4fb704cbf9b8277f921cb1b68f5080ffbcd948/output/AndroidManifest.xml:20:5-81
MERGED from [com.google.firebase:firebase-iid:11.0.1] /home/shobo/.android/build-cache/259caae394ddd8a90148aba2ae82df6c8aba204e/output/AndroidManifest.xml:22:5-81
	android:name
		ADDED from [com.google.android.gms:play-services-gcm:11.0.1] /home/shobo/.android/build-cache/b2d6a66bb0e9295380db795ac1ec7384d76b68fb/output/AndroidManifest.xml:20:22-79
service#com.google.android.gms.tagmanager.TagManagerService
ADDED from [com.google.android.gms:play-services-tagmanager-api:11.0.1] /home/shobo/.android/build-cache/a534bee0232b0c53d22aceb8fd6b2bef87753d24/output/AndroidManifest.xml:24:9-134
	android:enabled
		ADDED from [com.google.android.gms:play-services-tagmanager-api:11.0.1] /home/shobo/.android/build-cache/a534bee0232b0c53d22aceb8fd6b2bef87753d24/output/AndroidManifest.xml:24:110-132
	android:exported
		ADDED from [com.google.android.gms:play-services-tagmanager-api:11.0.1] /home/shobo/.android/build-cache/a534bee0232b0c53d22aceb8fd6b2bef87753d24/output/AndroidManifest.xml:24:85-109
	android:name
		ADDED from [com.google.android.gms:play-services-tagmanager-api:11.0.1] /home/shobo/.android/build-cache/a534bee0232b0c53d22aceb8fd6b2bef87753d24/output/AndroidManifest.xml:24:18-84
activity#com.google.android.gms.tagmanager.TagManagerPreviewActivity
ADDED from [com.google.android.gms:play-services-tagmanager-api:11.0.1] /home/shobo/.android/build-cache/a534bee0232b0c53d22aceb8fd6b2bef87753d24/output/AndroidManifest.xml:25:9-32:20
	android:exported
		ADDED from [com.google.android.gms:play-services-tagmanager-api:11.0.1] /home/shobo/.android/build-cache/a534bee0232b0c53d22aceb8fd6b2bef87753d24/output/AndroidManifest.xml:25:94-117
	android:noHistory
		ADDED from [com.google.android.gms:play-services-tagmanager-api:11.0.1] /home/shobo/.android/build-cache/a534bee0232b0c53d22aceb8fd6b2bef87753d24/output/AndroidManifest.xml:25:118-142
	android:name
		ADDED from [com.google.android.gms:play-services-tagmanager-api:11.0.1] /home/shobo/.android/build-cache/a534bee0232b0c53d22aceb8fd6b2bef87753d24/output/AndroidManifest.xml:25:19-93
intent-filter#android.intent.action.VIEW+android.intent.category.BROWSABLE+android.intent.category.DEFAULT
ADDED from [com.google.android.gms:play-services-tagmanager-api:11.0.1] /home/shobo/.android/build-cache/a534bee0232b0c53d22aceb8fd6b2bef87753d24/output/AndroidManifest.xml:26:13-31:29
data
ADDED from [com.google.android.gms:play-services-tagmanager-api:11.0.1] /home/shobo/.android/build-cache/a534bee0232b0c53d22aceb8fd6b2bef87753d24/output/AndroidManifest.xml:27:17-71
	android:scheme
		ADDED from [com.google.android.gms:play-services-tagmanager-api:11.0.1] /home/shobo/.android/build-cache/a534bee0232b0c53d22aceb8fd6b2bef87753d24/output/AndroidManifest.xml:27:23-69
action#android.intent.action.VIEW
ADDED from [com.google.android.gms:play-services-tagmanager-api:11.0.1] /home/shobo/.android/build-cache/a534bee0232b0c53d22aceb8fd6b2bef87753d24/output/AndroidManifest.xml:28:17-68
	android:name
		ADDED from [com.google.android.gms:play-services-tagmanager-api:11.0.1] /home/shobo/.android/build-cache/a534bee0232b0c53d22aceb8fd6b2bef87753d24/output/AndroidManifest.xml:28:25-66
category#android.intent.category.BROWSABLE
ADDED from [com.google.android.gms:play-services-tagmanager-api:11.0.1] /home/shobo/.android/build-cache/a534bee0232b0c53d22aceb8fd6b2bef87753d24/output/AndroidManifest.xml:30:17-77
	android:name
		ADDED from [com.google.android.gms:play-services-tagmanager-api:11.0.1] /home/shobo/.android/build-cache/a534bee0232b0c53d22aceb8fd6b2bef87753d24/output/AndroidManifest.xml:30:27-75
uses-feature#0x00020000
ADDED from [com.google.android.gms:play-services-maps:11.0.1] /home/shobo/.android/build-cache/234141296cdb5611894bb50d0261ab0ead69c6ee/output/AndroidManifest.xml:21:5-77
	android:glEsVersion
		ADDED from [com.google.android.gms:play-services-maps:11.0.1] /home/shobo/.android/build-cache/234141296cdb5611894bb50d0261ab0ead69c6ee/output/AndroidManifest.xml:21:19-51
	android:required
		ADDED from [com.google.android.gms:play-services-maps:11.0.1] /home/shobo/.android/build-cache/234141296cdb5611894bb50d0261ab0ead69c6ee/output/AndroidManifest.xml:21:52-75
activity#com.google.android.gms.common.api.GoogleApiActivity
ADDED from [com.google.android.gms:play-services-base:11.0.1] /home/shobo/.android/build-cache/34be1e984cd501c7a38103119bbdc3decac4ad28/output/AndroidManifest.xml:19:9-172
	android:exported
		ADDED from [com.google.android.gms:play-services-base:11.0.1] /home/shobo/.android/build-cache/34be1e984cd501c7a38103119bbdc3decac4ad28/output/AndroidManifest.xml:19:146-170
	android:theme
		ADDED from [com.google.android.gms:play-services-base:11.0.1] /home/shobo/.android/build-cache/34be1e984cd501c7a38103119bbdc3decac4ad28/output/AndroidManifest.xml:19:86-145
	android:name
		ADDED from [com.google.android.gms:play-services-base:11.0.1] /home/shobo/.android/build-cache/34be1e984cd501c7a38103119bbdc3decac4ad28/output/AndroidManifest.xml:19:19-85
receiver#com.google.android.gms.measurement.AppMeasurementReceiver
ADDED from [com.google.firebase:firebase-analytics:11.0.1] /home/shobo/.android/build-cache/a4397502cfd32d8f1e837b037e15485a22e420ef/output/AndroidManifest.xml:25:7-26:18
MERGED from [com.google.firebase:firebase-analytics-impl:11.0.1] /home/shobo/.android/build-cache/9d68c6ffa089e6eae5b0fc2c311b8bfecdd106e4/output/AndroidManifest.xml:25:7-26:18
	android:enabled
		ADDED from [com.google.firebase:firebase-analytics:11.0.1] /home/shobo/.android/build-cache/a4397502cfd32d8f1e837b037e15485a22e420ef/output/AndroidManifest.xml:25:90-112
	android:exported
		ADDED from [com.google.firebase:firebase-analytics:11.0.1] /home/shobo/.android/build-cache/a4397502cfd32d8f1e837b037e15485a22e420ef/output/AndroidManifest.xml:25:113-137
	android:name
		ADDED from [com.google.firebase:firebase-analytics:11.0.1] /home/shobo/.android/build-cache/a4397502cfd32d8f1e837b037e15485a22e420ef/output/AndroidManifest.xml:25:17-89
receiver#com.google.android.gms.measurement.AppMeasurementInstallReferrerReceiver
ADDED from [com.google.firebase:firebase-analytics:11.0.1] /home/shobo/.android/build-cache/a4397502cfd32d8f1e837b037e15485a22e420ef/output/AndroidManifest.xml:27:7-31:18
	android:enabled
		ADDED from [com.google.firebase:firebase-analytics:11.0.1] /home/shobo/.android/build-cache/a4397502cfd32d8f1e837b037e15485a22e420ef/output/AndroidManifest.xml:27:162-184
	android:exported
		ADDED from [com.google.firebase:firebase-analytics:11.0.1] /home/shobo/.android/build-cache/a4397502cfd32d8f1e837b037e15485a22e420ef/output/AndroidManifest.xml:27:185-208
	android:permission
		ADDED from [com.google.firebase:firebase-analytics:11.0.1] /home/shobo/.android/build-cache/a4397502cfd32d8f1e837b037e15485a22e420ef/output/AndroidManifest.xml:27:105-161
	android:name
		ADDED from [com.google.firebase:firebase-analytics:11.0.1] /home/shobo/.android/build-cache/a4397502cfd32d8f1e837b037e15485a22e420ef/output/AndroidManifest.xml:27:17-104
intent-filter#com.android.vending.INSTALL_REFERRER
ADDED from [com.google.firebase:firebase-analytics:11.0.1] /home/shobo/.android/build-cache/a4397502cfd32d8f1e837b037e15485a22e420ef/output/AndroidManifest.xml:28:11-30:27
action#com.android.vending.INSTALL_REFERRER
ADDED from [com.google.firebase:firebase-analytics:11.0.1] /home/shobo/.android/build-cache/a4397502cfd32d8f1e837b037e15485a22e420ef/output/AndroidManifest.xml:29:15-76
	android:name
		ADDED from [com.google.firebase:firebase-analytics:11.0.1] /home/shobo/.android/build-cache/a4397502cfd32d8f1e837b037e15485a22e420ef/output/AndroidManifest.xml:29:23-74
service#com.google.android.gms.measurement.AppMeasurementService
ADDED from [com.google.firebase:firebase-analytics:11.0.1] /home/shobo/.android/build-cache/a4397502cfd32d8f1e837b037e15485a22e420ef/output/AndroidManifest.xml:32:7-137
MERGED from [com.google.firebase:firebase-analytics-impl:11.0.1] /home/shobo/.android/build-cache/9d68c6ffa089e6eae5b0fc2c311b8bfecdd106e4/output/AndroidManifest.xml:27:7-137
	android:enabled
		ADDED from [com.google.firebase:firebase-analytics:11.0.1] /home/shobo/.android/build-cache/a4397502cfd32d8f1e837b037e15485a22e420ef/output/AndroidManifest.xml:32:88-110
	android:exported
		ADDED from [com.google.firebase:firebase-analytics:11.0.1] /home/shobo/.android/build-cache/a4397502cfd32d8f1e837b037e15485a22e420ef/output/AndroidManifest.xml:32:111-135
	android:name
		ADDED from [com.google.firebase:firebase-analytics:11.0.1] /home/shobo/.android/build-cache/a4397502cfd32d8f1e837b037e15485a22e420ef/output/AndroidManifest.xml:32:16-87
service#com.google.android.gms.measurement.AppMeasurementJobService
ADDED from [com.google.firebase:firebase-analytics:11.0.1] /home/shobo/.android/build-cache/a4397502cfd32d8f1e837b037e15485a22e420ef/output/AndroidManifest.xml:33:7-197
	android:enabled
		ADDED from [com.google.firebase:firebase-analytics:11.0.1] /home/shobo/.android/build-cache/a4397502cfd32d8f1e837b037e15485a22e420ef/output/AndroidManifest.xml:33:148-170
	android:exported
		ADDED from [com.google.firebase:firebase-analytics:11.0.1] /home/shobo/.android/build-cache/a4397502cfd32d8f1e837b037e15485a22e420ef/output/AndroidManifest.xml:33:171-195
	android:permission
		ADDED from [com.google.firebase:firebase-analytics:11.0.1] /home/shobo/.android/build-cache/a4397502cfd32d8f1e837b037e15485a22e420ef/output/AndroidManifest.xml:33:91-147
	android:name
		ADDED from [com.google.firebase:firebase-analytics:11.0.1] /home/shobo/.android/build-cache/a4397502cfd32d8f1e837b037e15485a22e420ef/output/AndroidManifest.xml:33:16-90
permission#${applicationId}.permission.C2D_MESSAGE
ADDED from [com.google.firebase:firebase-iid:11.0.1] /home/shobo/.android/build-cache/259caae394ddd8a90148aba2ae82df6c8aba204e/output/AndroidManifest.xml:24:5-109
	android:protectionLevel
		ADDED from [com.google.firebase:firebase-iid:11.0.1] /home/shobo/.android/build-cache/259caae394ddd8a90148aba2ae82df6c8aba204e/output/AndroidManifest.xml:24:72-107
	android:name
		ADDED from [com.google.firebase:firebase-iid:11.0.1] /home/shobo/.android/build-cache/259caae394ddd8a90148aba2ae82df6c8aba204e/output/AndroidManifest.xml:24:17-71
uses-permission#${applicationId}.permission.C2D_MESSAGE
ADDED from [com.google.firebase:firebase-iid:11.0.1] /home/shobo/.android/build-cache/259caae394ddd8a90148aba2ae82df6c8aba204e/output/AndroidManifest.xml:26:5-78
	android:name
		ADDED from [com.google.firebase:firebase-iid:11.0.1] /home/shobo/.android/build-cache/259caae394ddd8a90148aba2ae82df6c8aba204e/output/AndroidManifest.xml:26:22-76
receiver#com.google.firebase.iid.FirebaseInstanceIdReceiver
ADDED from [com.google.firebase:firebase-iid:11.0.1] /home/shobo/.android/build-cache/259caae394ddd8a90148aba2ae82df6c8aba204e/output/AndroidManifest.xml:30:9-35:20
	android:exported
		ADDED from [com.google.firebase:firebase-iid:11.0.1] /home/shobo/.android/build-cache/259caae394ddd8a90148aba2ae82df6c8aba204e/output/AndroidManifest.xml:30:85-108
	android:permission
		ADDED from [com.google.firebase:firebase-iid:11.0.1] /home/shobo/.android/build-cache/259caae394ddd8a90148aba2ae82df6c8aba204e/output/AndroidManifest.xml:30:109-169
	android:name
		ADDED from [com.google.firebase:firebase-iid:11.0.1] /home/shobo/.android/build-cache/259caae394ddd8a90148aba2ae82df6c8aba204e/output/AndroidManifest.xml:30:19-84
intent-filter#${applicationId}+com.google.android.c2dm.intent.RECEIVE
ADDED from [com.google.firebase:firebase-iid:11.0.1] /home/shobo/.android/build-cache/259caae394ddd8a90148aba2ae82df6c8aba204e/output/AndroidManifest.xml:31:13-34:29
action#com.google.android.c2dm.intent.RECEIVE
ADDED from [com.google.firebase:firebase-iid:11.0.1] /home/shobo/.android/build-cache/259caae394ddd8a90148aba2ae82df6c8aba204e/output/AndroidManifest.xml:32:17-80
	android:name
		ADDED from [com.google.firebase:firebase-iid:11.0.1] /home/shobo/.android/build-cache/259caae394ddd8a90148aba2ae82df6c8aba204e/output/AndroidManifest.xml:32:25-78
category#${applicationId}
ADDED from [com.google.firebase:firebase-iid:11.0.1] /home/shobo/.android/build-cache/259caae394ddd8a90148aba2ae82df6c8aba204e/output/AndroidManifest.xml:33:17-60
	android:name
		ADDED from [com.google.firebase:firebase-iid:11.0.1] /home/shobo/.android/build-cache/259caae394ddd8a90148aba2ae82df6c8aba204e/output/AndroidManifest.xml:33:27-58
receiver#com.google.firebase.iid.FirebaseInstanceIdInternalReceiver
ADDED from [com.google.firebase:firebase-iid:11.0.1] /home/shobo/.android/build-cache/259caae394ddd8a90148aba2ae82df6c8aba204e/output/AndroidManifest.xml:39:9-119
	android:exported
		ADDED from [com.google.firebase:firebase-iid:11.0.1] /home/shobo/.android/build-cache/259caae394ddd8a90148aba2ae82df6c8aba204e/output/AndroidManifest.xml:39:93-117
	android:name
		ADDED from [com.google.firebase:firebase-iid:11.0.1] /home/shobo/.android/build-cache/259caae394ddd8a90148aba2ae82df6c8aba204e/output/AndroidManifest.xml:39:19-92
service#com.google.firebase.iid.FirebaseInstanceIdService
ADDED from [com.google.firebase:firebase-iid:11.0.1] /home/shobo/.android/build-cache/259caae394ddd8a90148aba2ae82df6c8aba204e/output/AndroidManifest.xml:43:9-47:19
	android:exported
		ADDED from [com.google.firebase:firebase-iid:11.0.1] /home/shobo/.android/build-cache/259caae394ddd8a90148aba2ae82df6c8aba204e/output/AndroidManifest.xml:43:83-106
	android:name
		ADDED from [com.google.firebase:firebase-iid:11.0.1] /home/shobo/.android/build-cache/259caae394ddd8a90148aba2ae82df6c8aba204e/output/AndroidManifest.xml:43:18-82
intent-filter#com.google.firebase.INSTANCE_ID_EVENT
ADDED from [com.google.firebase:firebase-iid:11.0.1] /home/shobo/.android/build-cache/259caae394ddd8a90148aba2ae82df6c8aba204e/output/AndroidManifest.xml:44:13-46:29
	android:priority
		ADDED from [com.google.firebase:firebase-iid:11.0.1] /home/shobo/.android/build-cache/259caae394ddd8a90148aba2ae82df6c8aba204e/output/AndroidManifest.xml:44:28-51
action#com.google.firebase.INSTANCE_ID_EVENT
ADDED from [com.google.firebase:firebase-iid:11.0.1] /home/shobo/.android/build-cache/259caae394ddd8a90148aba2ae82df6c8aba204e/output/AndroidManifest.xml:45:17-79
	android:name
		ADDED from [com.google.firebase:firebase-iid:11.0.1] /home/shobo/.android/build-cache/259caae394ddd8a90148aba2ae82df6c8aba204e/output/AndroidManifest.xml:45:25-77
provider#com.google.firebase.provider.FirebaseInitProvider
ADDED from [com.google.firebase:firebase-common:11.0.1] /home/shobo/.android/build-cache/cd9b6d2435b70e281645d41d0325dc97400bbe3b/output/AndroidManifest.xml:6:9-194
	android:authorities
		ADDED from [com.google.firebase:firebase-common:11.0.1] /home/shobo/.android/build-cache/cd9b6d2435b70e281645d41d0325dc97400bbe3b/output/AndroidManifest.xml:6:19-78
	android:exported
		ADDED from [com.google.firebase:firebase-common:11.0.1] /home/shobo/.android/build-cache/cd9b6d2435b70e281645d41d0325dc97400bbe3b/output/AndroidManifest.xml:6:144-168
	android:initOrder
		ADDED from [com.google.firebase:firebase-common:11.0.1] /home/shobo/.android/build-cache/cd9b6d2435b70e281645d41d0325dc97400bbe3b/output/AndroidManifest.xml:6:169-192
	android:name
		ADDED from [com.google.firebase:firebase-common:11.0.1] /home/shobo/.android/build-cache/cd9b6d2435b70e281645d41d0325dc97400bbe3b/output/AndroidManifest.xml:6:79-143
meta-data#com.google.android.gms.version
ADDED from [com.google.android.gms:play-services-basement:11.0.1] /home/shobo/.android/build-cache/2f9c3528a863c171e0e614732eb33859a149cfed/output/AndroidManifest.xml:20:9-121
	android:value
		ADDED from [com.google.android.gms:play-services-basement:11.0.1] /home/shobo/.android/build-cache/2f9c3528a863c171e0e614732eb33859a149cfed/output/AndroidManifest.xml:20:66-119
	android:name
		ADDED from [com.google.android.gms:play-services-basement:11.0.1] /home/shobo/.android/build-cache/2f9c3528a863c171e0e614732eb33859a149cfed/output/AndroidManifest.xml:20:20-65
